…
Calculating the age using the birth date and comparing with the age variable:

``` r
> pacs %>%
+   mutate(date2 = if_else(is.na(onset),
+                          if_else(is.na(hospitalization),
+                                  if_else(is.na(consultation),
+                                          sample_collection,
+                                          consultation),
+                                  hospitalization),
+                          onset),
+          age2 = as.numeric((date2 - dob) / 365)) %>% 
+   filter(age2 > age + 1 | age2 < age - 1) %>% 
+   select(id, age, age2, dob, onset, hospitalization, consultation, sample_collection)
# A tibble: 157 x 8
      id   age     age2 dob        onset      hospitalization consultation
   <int> <dbl>    <dbl> <date>     <date>     <date>          <date>      
 1    25    10  2.01e+1 1992-05-03 2012-05-20 2012-05-23      2012-05-24  
 2    55    53  5.07e+1 1961-11-07 2012-06-25 2012-06-26      2012-06-26  
 3    80    22  2.32e+1 1989-05-02 2012-07-14 NA              2012-07-16  
 4    82    27  3.04e+1 1982-02-06 2012-07-08 2012-07-13      2012-07-13  
 5    86     5 -3.32e-1 2012-11-06 2012-07-08 2012-07-13      2012-07-13  
 6    94    54  5.16e+1 1960-12-14 2012-07-16 NA              2012-07-18  
 7   125     8 -8.22e-3 2012-08-01 2012-07-29 2012-07-31      2012-07-31  
 8   144    18  2.02e+1 1992-06-07 2012-08-04 NA              2012-08-08  
 9   152    37  3.58e+1 1976-11-13 2012-08-10 NA              2012-08-12  
10   158    36  3.75e+1 1975-02-14 2012-08-06 NA              2012-08-09  
# ... with 147 more rows, and 1 more variable: sample_collection <date>
```
…
Patching the village names:

``` r
> pacs %>%
+   left_join(villages_patch, "id") %>% 
+   mutate(village = if_else(is.na(Bhan), village, Bhan)) %>% 
+   select(-Bhan)
# A tibble: 7,460 x 17
      id nationality sex      age dob        province   district   village
   <dbl> <chr>       <fct>  <dbl> <date>     <chr>      <chr>      <chr>  
 1     1 laos        female    10 2002-02-10 Vientiane… Sisattana… Thong-…
 2     2 laos        male       6 NA         Vientiane… Hardsaiyf… Nongheo
 3     3 africa      female    25 1987-05-27 <NA>       <NA>       aaa    
 4     4 foreigner   male      45 NA         Vientiane… Xaysettha… Phonsi…
 5     5 japan       male      55 NA         <NA>       <NA>       <NA>   
 6     6 laos        female     4 2008-06-06 <NA>       <NA>       <NA>   
 7     7 japan       male      64 NA         <NA>       <NA>       <NA>   
 8     8 laos        male      13 1998-06-17 Vientiane… Chanthabu… Phonsa…
 9     9 laos        male       5 2006-12-12 Vientiane… Xaysettha… Phonxai
10    10 laos        male      14 NA         Vientiane… Xaysettha… Chomma…
# ... with 7,450 more rows, and 9 more variables: travel_laos <chr>,
#   travel_abroad <chr>, onset <date>, hospitalization <date>,
#   consultation <date>, sample_collection <date>, pcr <fct>, ns1 <fct>,
#   serotype <fct>
```
…
Onset should be before hospitalization, consultation and date of collection:

``` r
> pacs %>%
+   filter(!(onset <= hospitalization & onset <= consultation & onset <= sample_collection)) %>% 
+   select(id, age, dob, onset, hospitalization, consultation, sample_collection)
# A tibble: 87 x 7
      id   age dob        onset      hospitalization consultation
   <int> <dbl> <date>     <date>     <date>          <date>      
 1     4    45 NA         2012-09-04 NA              2012-10-04  
 2   442    27 NA         2012-11-29 NA              2012-11-23  
 3   523    14 NA         2012-12-27 2012-01-02      2013-01-03  
 4   525    14 NA         2012-12-31 2012-01-02      2013-01-03  
 5   687    35 NA         2013-05-03 NA              2013-06-04  
 6   689    12 NA         2013-05-04 2013-10-04      2013-10-04  
 7   698    21 NA         2013-05-04 2013-10-04      2013-10-04  
 8   813    11 NA         2013-06-16 NA              2013-06-19  
 9  1348     3 NA         2103-06-21 2013-06-26      2013-06-26  
10  1491    11 2001-09-19 2013-07-06 2013-07-05      2013-07-06  
# ... with 77 more rows, and 1 more variable: sample_collection <date>
```
…
